/* XPM */
static char*ellipse[]={
"16 16 4 1",
". c #808080",
"# c #000000",
"b c #800000",
"a c #ffffff",
"................",
"................",
"................",
"................",
"......#####.....",
"...###aaaaa###..",
"..#aaaaaaaaaaa#.",
"..#aaaabbbaaaa#.",
"..#aaaababaaaa#.",
"..#aaaabbbaaaa#.",
"..#aaaaaaaaaaa#.",
"...###aaaaa###..",
"......#####.....",
"................",
"................",
"................"};
