/* XPM */
static char*near[]={
"16 16 4 1",
". c #808080",
"# c #000000",
"a c #800000",
"b c #ffffff",
"................",
"................",
".............#..",
"............#...",
"...........#....",
"..........#.....",
".........#......",
"........#.......",
".......#........",
"....aaa.........",
"....aba.........",
"....aaa.........",
"...#............",
"..#.............",
"................",
"................"};
