/* XPM */
static char*zoom_all[]={
"24 24 4 1",
"# c #000000",
". c None",
"b c #800000",
"a c #ffffff",
"........................",
".......#####............",
".....#########..........",
"....###aaaaa###.........",
"...##aaaaaaaaa##........",
"..##aabbbbbaaaa##.......",
"..##aabaabbbaaa##.......",
".##aaabaabbbbaaa##......",
".##aaabaabbbbaaa##......",
".##aaabaaaaabaaa##......",
".##aaabaaaaabaaa##......",
".##aaabaaaaabaaa##......",
"..##aabaaaaabaa##.......",
"..##aabbbbbbbaa##.......",
"...##aaaaaaaaa##........",
"....###aaaaa######......",
".....#########.####.....",
".......#####...#####....",
"................#####...",
".................####...",
"..................###...",
"........................",
"........................",
"........................"};
